<?xml version="1.0" encoding="utf-8"?>
<!-- Generator: Adobe Illustrator 17.0.0, SVG Export Plug-In . SVG Version: 6.00 Build 0)  -->
<!DOCTYPE svg PUBLIC "-//W3C//DTD SVG 1.1//EN" "http://www.w3.org/Graphics/SVG/1.1/DTD/svg11.dtd">
<svg version="1.1" id="Layer_1" xmlns="http://www.w3.org/2000/svg" xmlns:xlink="http://www.w3.org/1999/xlink" x="0px" y="0px"
	 width="95.333px" height="93.667px" viewBox="0 0 95.333 93.667" enable-background="new 0 0 95.333 93.667" xml:space="preserve">
<g>
	<g>
		<path fill="#FFFFFF" d="M48.987,28.647h1.904c0-0.052-0.009-0.198-0.038-0.436c-0.052-0.427-0.149-0.938-0.3-1.53
			c-0.444-1.732-1.25-3.745-2.513-6.011l-0.065-0.117l-0.037-0.128c-0.024-0.082-0.053-0.203-0.081-0.354
			c-0.065-0.354-0.093-0.719-0.06-1.086c0.109-1.18,0.871-2.071,2.22-2.071c1.035,0,1.988,0.524,2.904,1.365l0.181,0.143
			c0,0,0.1-0.095,0.152-0.143c0.916-0.84,1.869-1.365,2.904-1.365c1.348,0,2.108,0.896,2.252,2.088
			c0.047,0.389,0.029,0.778-0.028,1.153c-0.021,0.137-0.043,0.247-0.061,0.32l-0.04,0.166l-0.086,0.148
			c-1.291,2.219-2.114,4.201-2.566,5.914c-0.155,0.585-0.253,1.091-0.306,1.514c-0.03,0.235-0.039,0.43-0.039,0.43l7.787,0
			c1.881,0,3.375,1.594,3.368,3.512l0,0c0,0.001,0,0.003,0,0.004v9.702c0.701,0.404,1.173,1.16,1.173,2.035
			c0,0.427-0.114,0.828-0.313,1.173h0h0.305c1.948,0,3.528,1.574,3.528,3.517v0.553l0,0c0,0.008,0,0.017,0,0.025v9.123l0,0
			c0.701,0.404,1.173,1.16,1.173,2.035c0,0.427-0.114,0.828-0.314,1.173h0.311c1.946,0,3.523,1.587,3.523,3.511v14.097
			c0,1.939-1.565,3.511-3.523,3.511H23.03c-1.946,0-3.523-1.587-3.523-3.511V65.011c0-1.939,1.565-3.511,3.523-3.511h0.308l0,0
			c-0.198-0.344-0.311-0.745-0.311-1.173c0-0.869,0.473-1.627,1.173-2.033V48.59c0-1.942,1.575-3.517,3.528-3.517h0.304
			c-0.198-0.344-0.312-0.745-0.312-1.173c0-0.869,0.471-1.628,1.173-2.034l0,0v-9.703c0-0.065,0.002-0.13,0.005-0.195
			c0.046-0.853,0.385-1.653,0.953-2.262c0.628-0.671,1.491-1.06,2.418-1.06h4.944l0.026-0.194c0.03-0.177,0.087-0.472,0.174-0.846
			c0.144-0.623,0.32-1.247,0.532-1.838c0.426-1.187,0.938-2.099,1.63-2.669c0.204-0.168,0.36-0.488,0.446-0.947
			c0.086-0.46,0.088-0.981,0.036-1.465c-0.012-0.113-0.023-0.19-0.029-0.221l-0.018-0.205c0-0.282,0.054-0.626,0.228-0.998
			c0.33-0.706,0.992-1.177,1.883-1.177c0.85,0,0.85,0,1.488,0c0.316,0,0.316,0,0.491,0.004c0.271,0.023,0.599,0.104,0.946,0.303
			c0.636,0.365,1.051,1.008,1.051,1.845c0,1.506,0.17,2.53,0.57,2.902c0.08,0.074,0.156,0.155,0.229,0.243
			c0.44,0.527,0.834,1.352,1.235,2.448c0.202,0.554,0.393,1.142,0.566,1.729c0.104,0.352,0.18,0.628,0.222,0.791L48.987,28.647
			L48.987,28.647z M52.064,28.647l2.047,0c0,0,0-3.168,3.07-8.448c0,0,0.512-2.112-1.023-2.112s-3.07,2.112-3.07,2.112
			s-1.535-2.112-3.07-2.112c-1.535,0-0.953,2.012-0.953,2.012C52.064,25.479,52.064,28.647,52.064,28.647L52.064,28.647z
			 M38.397,28.647h9.386c0,0-0.981-3.778-1.916-4.647c-0.934-0.869-0.944-2.86-0.944-3.761s-0.922-0.979-0.922-0.979
			s-0.942,0-1.879,0c-0.938,0-0.938,1.001-0.938,1.001s0.47,2.646-0.862,3.744C38.99,25.104,38.397,28.647,38.397,28.647
			L38.397,28.647z M65.266,34.837v6.716H30.067v-6.716c0.588,0.529,1.355,0.851,2.2,0.851c0.847,0,1.615-0.323,2.204-0.854
			l0.075,0.071c0.577,0.488,1.314,0.782,2.122,0.782c0.855,0,1.63-0.329,2.221-0.869l0.058,0.087
			c0.577,0.488,1.314,0.782,2.122,0.782c0.856,0,1.631-0.33,2.222-0.87l0.057,0.088c0.577,0.488,1.314,0.782,2.122,0.782
			c0.849,0,1.619-0.325,2.208-0.858l0.07,0.075c0.577,0.488,1.314,0.782,2.122,0.782c0.84,0,1.603-0.318,2.19-0.842l0.089,0.059
			c0.577,0.488,1.314,0.782,2.122,0.782c0.851,0,1.623-0.326,2.213-0.862l0.066,0.079c0.577,0.488,1.314,0.782,2.122,0.782
			c0.851,0,1.626-0.327,2.217-0.866l0.113,0.132c0.569,0.46,1.284,0.734,2.063,0.734C63.911,35.688,64.678,35.366,65.266,34.837
			L65.266,34.837L65.266,34.837z M69.959,52.098v5.88L25.377,57.98l-0.002-5.88c0.713,0.733,1.694,1.187,2.786,1.187
			c1.1,0,2.088-0.462,2.802-1.204c0,0-0.081-0.016,0.269,0.28c0.68,0.576,1.55,0.923,2.503,0.923c1.1,0,2.088-0.461,2.802-1.203
			c0,0-0.08-0.016,0.269,0.28c0.68,0.576,1.55,0.923,2.503,0.923c1.096,0,2.081-0.458,2.795-1.196c0,0-0.073-0.024,0.277,0.273
			c0.68,0.576,1.55,0.923,2.503,0.923c1.099,0,2.086-0.461,2.8-1.202c0,0-0.079-0.018,0.271,0.278
			c0.68,0.576,1.55,0.923,2.503,0.923c1.092,0,2.074-0.455,2.787-1.188c0,0-0.066-0.031,0.284,0.265
			c0.68,0.576,1.55,0.923,2.503,0.923c1.103,0,2.093-0.464,2.807-1.209c0,0-0.086-0.01,0.264,0.286
			c0.68,0.576,1.55,0.923,2.503,0.923c1.091,0,2.076-0.456,2.791-1.192c0,0-0.004,0.047,0.34,0.326
			c0.67,0.542,1.514,0.866,2.434,0.866C68.264,53.286,69.246,52.831,69.959,52.098L69.959,52.098L69.959,52.098z M20.681,69.34
			v9.768c0,1.281,1.057,2.338,2.35,2.338h49.272c1.306,0,2.35-1.043,2.35-2.338V69.34c-0.829,0.948-2.029,1.546-3.374,1.546
			c-1.06,0-2.032-0.373-2.804-0.997c-0.393-0.318-0.547-0.562-0.547-0.562c-0.831,0.957-2.038,1.56-3.386,1.56
			c-1.099,0-2.101-0.4-2.884-1.063c-0.399-0.338-0.483-0.491-0.483-0.491c-0.83,0.952-2.033,1.554-3.381,1.554
			c-1.099,0-2.101-0.4-2.884-1.063c-0.399-0.338-0.483-0.492-0.483-0.492c-0.83,0.953-2.033,1.555-3.382,1.555
			c-1.099,0-2.101-0.4-2.884-1.063c-0.399-0.338-0.48-0.495-0.48-0.495c-0.83,0.955-2.034,1.558-3.385,1.558
			c-1.099,0-2.101-0.4-2.884-1.063c-0.399-0.338-0.493-0.48-0.493-0.48c-0.829,0.946-2.028,1.543-3.371,1.543
			c-1.099,0-2.101-0.4-2.884-1.063c-0.399-0.338-0.491-0.482-0.491-0.482c-0.829,0.947-2.029,1.545-3.373,1.545
			c-1.099,0-2.101-0.4-2.884-1.063c-0.399-0.338-0.478-0.497-0.478-0.497c-0.83,0.956-2.035,1.561-3.387,1.561
			C22.71,70.886,21.51,70.288,20.681,69.34L20.681,69.34L20.681,69.34z M71.287,62.673H24.058c-0.939,0-1.783,0.394-2.393,1.032
			c-0.606,0.636-0.984,1.516-0.984,2.488c0,1.944,1.511,3.52,3.374,3.52c1.863,0,3.374-1.576,3.374-3.52
			c0,1.944,1.511,3.52,3.374,3.52s3.374-1.576,3.374-3.52c0,1.944,1.511,3.52,3.374,3.52s3.374-1.576,3.374-3.52
			c0,1.944,1.511,3.52,3.374,3.52c1.863,0,3.374-1.576,3.374-3.52c0,1.944,1.511,3.52,3.374,3.52c1.863,0,3.374-1.576,3.374-3.52
			c0,1.944,1.511,3.52,3.374,3.52c1.863,0,3.374-1.576,3.374-3.52c0,1.944,1.511,3.52,3.374,3.52c1.797,0,3.267-1.466,3.368-3.315
			c0.102,1.849,1.571,3.315,3.368,3.315c1.863,0,3.374-1.576,3.374-3.52C74.664,64.253,73.152,62.673,71.287,62.673L71.287,62.673z
			 M24.201,60.326c0,0.654,0.52,1.173,1.17,1.173h44.591c0.644,0,1.17-0.526,1.17-1.173c0-0.654-0.52-1.173-1.17-1.173H25.371
			C24.727,59.153,24.201,59.679,24.201,60.326L24.201,60.326z M28.164,46.247c-0.776,0-1.473,0.329-1.977,0.86
			c-0.501,0.53-0.813,1.263-0.813,2.073c0,1.62,1.248,2.933,2.787,2.933c1.539,0,2.787-1.313,2.787-2.933
			c0,1.62,1.248,2.933,2.787,2.933c1.539,0,2.787-1.313,2.787-2.933c0,1.62,1.248,2.933,2.787,2.933
			c1.539,0,2.787-1.313,2.787-2.933c0,1.62,1.248,2.933,2.787,2.933c1.539,0,2.787-1.313,2.787-2.933
			c0,1.62,1.248,2.933,2.787,2.933c1.539,0,2.787-1.313,2.787-2.933c0,1.62,1.248,2.933,2.787,2.933S58.82,50.8,58.82,49.18
			c0,1.62,1.248,2.933,2.787,2.933c1.485,0,2.699-1.222,2.783-2.763c0.084,1.541,1.298,2.763,2.783,2.763
			c1.539,0,2.787-1.313,2.787-2.933c0.009-1.617-1.24-2.933-2.78-2.933H28.164L28.164,46.247z M28.894,43.9
			c0,0.653,0.521,1.173,1.173,1.173h35.199c0.65,0,1.173-0.524,1.173-1.173c0-0.653-0.521-1.173-1.173-1.173H30.067
			C29.417,42.727,28.894,43.25,28.894,43.9L28.894,43.9z M63.071,29.82H32.269c-0.612,0-1.163,0.263-1.561,0.688
			c-0.395,0.424-0.642,1.011-0.642,1.659c0,1.296,0.985,2.347,2.2,2.347c1.215,0,2.2-1.051,2.2-2.347c0,1.296,0.985,2.347,2.2,2.347
			c1.215,0,2.2-1.051,2.2-2.347c0,1.296,0.985,2.347,2.2,2.347s2.2-1.051,2.2-2.347c0,1.296,0.985,2.347,2.2,2.347
			c1.215,0,2.2-1.051,2.2-2.347c0,1.296,0.985,2.347,2.2,2.347s2.2-1.051,2.2-2.347c0,1.296,0.985,2.347,2.2,2.347
			s2.2-1.051,2.2-2.347c0,1.296,0.985,2.347,2.2,2.347c1.172,0,2.13-0.978,2.197-2.21c0.066,1.233,1.024,2.21,2.197,2.21
			c1.215,0,2.2-1.051,2.2-2.347C65.273,30.874,64.287,29.82,63.071,29.82L63.071,29.82z M43.09,16.914
			c-1.62,0-2.933-1.313-2.933-2.933s1.313-2.933,2.933-2.933s2.933,1.313,2.933,2.933S44.71,16.914,43.09,16.914L43.09,16.914z
			 M43.09,15.741c0.972,0,1.76-0.788,1.76-1.76s-0.788-1.76-1.76-1.76s-1.76,0.788-1.76,1.76S42.118,15.741,43.09,15.741
			L43.09,15.741z M53.063,16.914c-1.62,0-2.933-1.313-2.933-2.933s1.313-2.933,2.933-2.933c1.62,0,2.933,1.313,2.933,2.933
			S54.683,16.914,53.063,16.914L53.063,16.914z M53.063,15.741c0.972,0,1.76-0.788,1.76-1.76s-0.788-1.76-1.76-1.76
			c-0.972,0-1.76,0.788-1.76,1.76S52.091,15.741,53.063,15.741L53.063,15.741z"/>
	</g>
</g>
</svg>
