<?xml version="1.0" encoding="utf-8"?>
<!-- Generator: Adobe Illustrator 17.0.0, SVG Export Plug-In . SVG Version: 6.00 Build 0)  -->
<!DOCTYPE svg PUBLIC "-//W3C//DTD SVG 1.1//EN" "http://www.w3.org/Graphics/SVG/1.1/DTD/svg11.dtd">
<svg version="1.1" id="Layer_1" xmlns="http://www.w3.org/2000/svg" xmlns:xlink="http://www.w3.org/1999/xlink" x="0px" y="0px"
	 width="291px" height="192.5px" viewBox="334.5 183.5 291 192.5" enable-background="new 334.5 183.5 291 192.5"
	 xml:space="preserve">
<g>
	<g>
		<g>
			<g>
				<g>
					<path fill="#FF344E" d="M347.466,370.003V190.138h-10.58v-2.645h42.321c28.566,0,47.612,19.044,47.612,42.321v5.29
						c0,24.864-21.425,36.237-39.676,40.999c18.251,4.761,42.321,16.135,42.321,40.998v13.226c0,23.276-19.044,42.321-47.612,42.321
						h-44.966v-2.645H347.466z M405.657,229.814c0-21.954-11.903-39.676-26.451-39.676h-10.58v84.642h10.58
						c14.548,0,26.451-16.135,26.451-39.676V229.814z M408.302,317.101c0-23.541-14.548-39.676-29.096-39.676h-10.58v92.578h13.225
						c14.548,0,26.451-17.722,26.451-39.676L408.302,317.101L408.302,317.101z"/>
					<path fill="#FF344E" d="M474.162,239.071c17.457,0,34.385,10.051,34.385,35.709v81.997c0,5.026,2.381,8.993,5.29,8.993
						c2.909,0,5.29-3.968,5.29-8.993h2.645c0,9.523-7.671,17.193-17.193,17.193c-7.671,0-14.018-4.761-16.399-11.374
						c-2.381,5.555-7.671,11.374-18.516,11.374c-15.341,0-29.889-11.903-29.889-27.773v-8.993c0-14.812,19.044-27.773,19.044-27.773
						l28.566-19.309v-25.922c0-15.606-4.497-22.483-13.226-22.483c-6.613,0-14.284,2.645-18.251,7.935
						c7.671,0,12.961,5.29,12.961,11.903c0,6.612-5.29,11.903-11.903,11.903c-6.612,0-11.903-5.29-11.903-11.903
						C445.067,249.123,458.292,239.071,474.162,239.071z M487.387,293.825l-19.044,13.225c-5.555,3.703-7.407,12.432-7.407,30.153
						v19.573c0,5.82,2.116,14.548,10.58,14.548c6.613,0,15.077-5.819,15.87-14.812L487.387,293.825L487.387,293.825z"/>
					<path fill="#FF344E" d="M560.387,187.493v182.51h10.58v2.645h-42.321v-2.645h10.58V190.138h-10.58v-2.645H560.387z"/>
					<path fill="#FF344E" d="M612.759,187.493v182.51h10.58v2.645h-42.321v-2.645h10.58V190.138h-10.58v-2.645H612.759z"/>
				</g>
			</g>
		</g>
	</g>
	<g>
		<g>
			<g>
				<g>
					<path fill="#FF344E" d="M463.537,222.322c0,2.035-1.639,3.673-3.674,3.673s-3.673-1.639-3.673-3.673v-24.301h-2.826v-0.565
						h2.826v-3.787l4.521-2.995v6.782h3.391v0.565h-3.391v24.302c0,1.074,0.508,1.922,1.131,1.922c0.621,0,1.13-0.847,1.13-1.922
						L463.537,222.322L463.537,222.322z"/>
					<path fill="#FF344E" d="M477.949,200.564c0-1.809-1.017-2.826-2.261-2.826c-1.582,0-3.391,1.526-3.391,3.673v23.737h2.261
						v0.565h-9.042v-0.565h2.261v-38.43h-2.261v-0.565h6.781v13.112c0.734-1.244,1.922-2.091,3.956-2.091
						c3.108,0,6.217,2.091,6.217,5.934v22.041h2.26v0.565h-9.042v-0.565h2.261L477.949,200.564L477.949,200.564z"/>
					<path fill="#FF344E" d="M492.362,220.627c0,3.334,1.526,4.804,3.391,4.804c2.261,0,5.651-1.639,5.651-7.065v-1.3h0.565v1.3
						c0,5.087-2.713,7.629-6.781,7.629c-3.73,0-7.347-2.26-7.347-7.629v-13.563c0-5.369,3.617-7.63,7.347-7.63
						c3.73,0,7.347,2.261,7.347,7.63v6.555h-10.173V220.627z M492.362,210.793h5.651v-5.991c0-5.03-0.961-7.065-2.826-7.065
						c-1.865,0-2.826,2.035-2.826,7.065L492.362,210.793L492.362,210.793z"/>
				</g>
			</g>
		</g>
	</g>
</g>
</svg>
